1b6af70d0.jpg
1c4ef590f.jpg
1cfc8390f.jpg
1d0a96bd3.jpg
1d21707c6.jpg
1e65fef55.jpg
1ee1902e6.jpg
1f5c1c779.jpg
1f4358722.jpg
1f14663c4.jpg
2a260d035.jpg
2ad0fd10f.jpg
2b824f113.jpg
2bb6c0d46.jpg
2c8ff1f45.jpg
2c176f855.jpg
2d7142055.jpg
2e21c23b9.jpg
2f0b71e98.jpg
2f4c7603e.jpg
2f4f02c6e.jpg
2f683e88c.jpg
3a45abe05.jpg
3bfde7c49.jpg
3cfc82ed0.jpg
3f248e279.jpg
3fb2d2d17.jpg
3fcbd8b3c.jpg
4a49dd752.jpg
04adf88e9.jpg
4b1a2bf9d.jpg
4d9fc178b.jpg
4d101b0a4.jpg
4e0a6f07a.jpg
4e846773b.jpg
4ea1bbd63.jpg
5a74cafef.jpg
5a122bd98.jpg
5b963d4a4.jpg
5bb644ad0.jpg
5bd167a57.jpg
5cd62b399.jpg
5d74d33ae.jpg
05d6517f2.jpg
5e73bd4ed.jpg
5f41af399.jpg
6a4ea1d99.jpg
6a62fab94.jpg
6b49effe0.jpg
06cfbaddf.jpg
6d46ed5b8.jpg
06dc95050.jpg
6e82b3246.jpg
6f5bc9d90.jpg
7a36a947c.jpg
7ae6322bd.jpg
7cb532c20.jpg
7d4f3c254.jpg
7d1152b0d.jpg
7d39555d7.jpg
7daae546e.jpg
7dc4bf03b.jpg
7dcbd7e9b.jpg
7dfe43d45.jpg
7e5e69922.jpg
7e21b1d76.jpg
7f47c615d.jpg
8aac190df.jpg
8c8ed8f23.jpg
8c67642f5.jpg
8d601c3e1.jpg
8d30efaa4.jpg
8e1c16ed2.jpg
8e24cd62d.jpg
8f73fc6fb.jpg
9a3ea3da2.jpg
9a4ef09a4.jpg
9b942f48b.jpg
9b09270c2.jpg
9bc90bb31.jpg
9c6ea2573.jpg
9c49b1c32.jpg
9c994f15c.jpg
9ca4503f1.jpg
9cab95677.jpg
9d46e55cf.jpg
9e7b79db9.jpg
9e8428c12.jpg
11c985217.jpg
13c2f63af.jpg
15b0a1013.jpg
18feb916e.jpg
19a7a264b.jpg
24d5b3a57.jpg
29e888ee6.jpg
30c988901.jpg
30f077fcb.jpg
33f13d997.jpg
35f4646de.jpg
35fad8067.jpg
37bcba41a.jpg
39b3a5740.jpg
038f6e50f.jpg
40ed1bab9.jpg
41de42aa7.jpg
42caabd0d.jpg
43af03e60.jpg
43d58590e.jpg
45a5e822c.jpg
045cd8ae8.jpg
46a761e3e.jpg
46ac1ece9.jpg
46c27040e.jpg
49c79d784.jpg
49e3019f9.jpg
51a85ca1d.jpg
53c11c462.jpg
54b718c76.jpg
55bded414.jpg
54e76081f.jpg
57c86a899.jpg
58f3fb400.jpg
61ad2ad83.jpg
62a63b25b.jpg
062d0bd7e.jpg
064dd41a3.jpg
64fd8b71b.jpg
65a248f54.jpg
65e152308.jpg
65d77fa13.jpg
65f227e75.jpg
70c60ea38.jpg
70ce65043.jpg
71d7a7c8d.jpg
72cefea7e.jpg
72d223cd2.jpg
72e623c89.jpg
73d4b0f45.jpg
74cadb412.jpg
75cb3441b.jpg
76c2f59a1.jpg
76f0df853.jpg
076f148a0.jpg
77e1dafad.jpg
79db55a62.jpg
80ec5f45d.jpg
80efd7b6e.jpg
81e53a84d.jpg
86c1579bf.jpg
87b834b58.jpg
87ec4811e.jpg
89a1a7fae.jpg
88f85f7ac.jpg
90df5d26d.jpg
92d5a33c0.jpg
93e123525.jpg
97bce8f29.jpg
107b998cc.jpg
192ca525f.jpg
203e1b1a3.jpg
220a6fc09.jpg
272d3d799.jpg
309b8afaa.jpg
312cba031.jpg
367b8f052.jpg
403f557ac.jpg
431a8ddcc.jpg
476bfc1ec.jpg
477ec0f89.jpg
0576b4452.jpg
607ccd1ac.jpg
614c737c2.jpg
620ba80c9.jpg
665a6859e.jpg
668a06e28.jpg
681b569e9.jpg
748dac31b.jpg
799f86aec.jpg
0823f9df3.jpg
826c82493.jpg
828d5c180.jpg
858a32030.jpg
877e3ab9e.jpg
900fde6a7.jpg
946fe659c.jpg
958e7f6c2.jpg
0951c2b3a.jpg
976a20219.jpg
980d79f3f.jpg
983af6d9c.jpg
0986ad02b.jpg
998bbed73.jpg
1270df73e.jpg
1945f4fab.jpg
3090d3069.jpg
3270c29a8.jpg
3715d70df.jpg
4049e4573.jpg
4085e5aeb.jpg
4076a5c2e.jpg
4431bc776.jpg
4574e9463.jpg
4910a5b26.jpg
4925dba65.jpg
5155d3f78.jpg
5256ea33f.jpg
5530e26ea.jpg
5505b0d4a.jpg
5739fac4f.jpg
6699e43b5.jpg
7233d00ad.jpg
7265efc78.jpg
07461c8d0.jpg
7770ea437.jpg
8063d319b.jpg
9031c4fd1.jpg
09445bf22.jpg
9497dc4c4.jpg
015889aa3.jpg
19308a3f1.jpg
20803e9b8.jpg
21649dbee.jpg
27313bd4c.jpg
38081e1f8.jpg
39580e5e0.jpg
41457c8ab.jpg
44016c19d.jpg
48050bb16.jpg
60410f111.jpg
71340e044.jpg
77186ceb6.jpg
085124ad4.jpg
92683fd04.jpg
95906a7f7.jpg
298964ea5.jpg
399270c42.jpg
432353a53.jpg
436714acd.jpg
460269ba1.jpg
468326f24.jpg
556416e64.jpg
738850ec3.jpg
818029ec2.jpg
944591a12.jpg
1152013c8.jpg
1608338eb.jpg
2099105f1.jpg
2589598a8.jpg
2682918b3.jpg
3084591fc.jpg
5151783ee.jpg
9855221e2.jpg
20642425b.jpg
023349526.jpg
34843114c.jpg
75965363d.jpg
81727689e.jpg
88766032d.jpg
155116572.jpg
363169733.jpg
909415203.jpg
955929753.jpg
a0a6f9792.jpg
a0ce200f2.jpg
a0ce392b4.jpg
a3e6c57c0.jpg
a003f2cd4.jpg
a03f5d0d5.jpg
a3fab7973.jpg
a4b2eba96.jpg
a1cddb0d0.jpg
a7a6d6ea9.jpg
a7a699c95.jpg
a7ad933bb.jpg
a8ec62b0e.jpg
a9e130209.jpg
a9fccd06c.jpg
a16be2d30.jpg
a036d9ce0.jpg
a35e96e96.jpg
a37ab2a3f.jpg
a60e47c55.jpg
a2669e30e.jpg
aad364b2b.jpg
aa4698849.jpg
aae00cab5.jpg
ab49d02a2.jpg
aba47b6a7.jpg
abe59fae7.jpg
ac54b5766.jpg
ac6290ae4.jpg
ac833887c.jpg
aca4fb801.jpg
ae31cb708.jpg
ae9010d64.jpg
aed16be54.jpg
afd68d619.jpg
afd433aea.jpg
b0ac88404.jpg
b0b5e3ca4.jpg
b1c57a902.jpg
b1cc2e8c1.jpg
b02f51576.jpg
b3c1e6be3.jpg
b3de2cbdc.jpg
b3c1e6be3.jpg
b5ac7b7a4.jpg
b7bce5c50.jpg
b7c8e9977.jpg
b7c764841.jpg
b7fb1af05.jpg
b8b52e3f4.jpg
b8faec944.jpg
b9d1c26d3.jpg
b62fb3d35.jpg
b85afe5d1.jpg
b88c082cc.jpg
b574b9ed9.jpg
b0558d1ec.jpg
b479b0669.jpg
b735d08d0.jpg
b741a16dd.jpg
b05009faf.jpg
b3243965d.jpg
b7215997a.jpg
b8234162a.jpg
bb01bcda7.jpg
bb050a3fa.jpg
bcab23c56.jpg
bcab59a0a.jpg
bcb33a263.jpg
bd089092e.jpg
bdd06a822.jpg
bdf2bcfd3.jpg
be49fc1a2.jpg
bf91c46d7.jpg
c3c2680a5.jpg
c7c71f252.jpg
c7cc81166.jpg
c7e62fa31.jpg
c56f97c9a.jpg
c62a3ecc0.jpg
c80a6bdbc.jpg
c249c44d5.jpg
c474f98ad.jpg
c3977aaca.jpg
c7489da23.jpg
c8270cd80.jpg
c70832e08.jpg
c87941d63.jpg
c88388c37.jpg
ca80644c6.jpg
cb4b4eb06.jpg
cd5b23ddc.jpg
cda2c9dbf.jpg
ce5c6aedf.jpg
cff1c391d.jpg
d2f3bf07f.jpg
d03a0b43d.jpg
d4cb9d6e4.jpg
d8cb674a8.jpg
d95ff0261.jpg
d92a3ba7f.jpg
d833c83d0.jpg
d074090da.jpg
d94423ec0.jpg
d58995cc5.jpg
da1287a7b.jpg
dcf0b3587.jpg
dd2aaf7a4.jpg
dd67c7b69.jpg
dde21203c.jpg
df65ce3a7.jpg
e2b6d6773.jpg
e4d120071.jpg
e4af8e299.jpg
e9b6dcefd.jpg
e74fca542.jpg
e58cbed7c.jpg
e60324cdc.jpg
eaffbd29b.jpg
ecfe32f49.jpg
ed679c6a5.jpg
eda772ffd.jpg
eecdab581.jpg
f6d9f0190.jpg
f491dfc21.jpg
f480f9980.jpg
f731fd769.jpg
f930d4cbb.jpg
f2084498e.jpg
faec9335c.jpg
fdb27aea3.jpg
fe2944ae4.jpg
fef0dc4a1.jpg
ff9b5c119.jpg
ff951984f.jpg
ffad62503.jpg
fff7faf61.jpg
a06f6b996.jpg
477ec0f89.jpg
55ab74496.jpg
278313517.jpg
a0a23b34a.jpg
93d4da731.jpg
1f8fd2940.jpg
7dcbd7e9b.jpg
a8d38e291.jpg
5256ea33f.jpg
63f44feab.jpg
8f897bd34.jpg
d4708bb7d.jpg
0ffc13ffa.jpg
7e7ea91d6.jpg
4369ce1d8.jpg
5e4ff2c5d.jpg
b13ee8454.jpg
d86d4d0ba.jpg
3c3713488.jpg
05db04583.jpg
03b7870be.jpg
0cacd7317.jpg
0ff53e610.jpg
d105fb350.jpg
dfa69a35a.jpg
37099f8f0.jpg
b62fb3d35.jpg
6b49effe0.jpg
2a720ecaa.jpg
aae00cab5.jpg
4f112fe10.jpg
72d223cd2.jpg
61ad2ad83.jpg
faec9335c.jpg
4f690cff0.jpg
5151783ee.jpg
476bfc1ec.jpg
07064347b.jpg
4049e4573.jpg
f318f1fa3.jpg
107b998cc.jpg
1202f27b4.jpg
666867ebc.jpg
980d79f3f.jpg
8edef7e0d.jpg
3090d3069.jpg
e0a91867c.jpg
af13af6c7.jpg
6fe7164ef.jpg
c126a3574.jpg
1e8c1aa9f.jpg
18d46c518.jpg
155116572.jpg
f245f5f00.jpg
8b4441e20.jpg
4d503bc95.jpg
9adf2402a.jpg
159eb7cc8.jpg
a3ab71b12.jpg
20a76cf1c.jpg
b9878af66.jpg
bf06fdc0b.jpg
dc7244e95.jpg
63492795c.jpg
575f8b348.jpg
2b96cac5a.jpg
4e4c20baa.jpg
8ad84babd.jpg
f013a1737.jpg
32618d9eb.jpg
63042538a.jpg
87c26c579.jpg
d2255eed6.jpg
0969fc5aa.jpg
acdf6848f.jpg
c73790ed5.jpg
210e9eeaa.jpg
b973ba432.jpg
15988658c.jpg
6374a8fdd.jpg
29cedf51a.jpg
d56962b80.jpg
52c9ae87b.jpg
807b9e272.jpg
ecf812258.jpg
3f8c91ec0.jpg
be2aa4685.jpg
28cf70103.jpg
3a0fe3838.jpg
9679b8767.jpg
3a0062726.jpg
604b50672.jpg
4d6002e1f.jpg
9873f5fda.jpg
5cce7e81c.jpg
064de9c50.jpg
ee278ac35.jpg
948dc2d5a.jpg
2c966ad9d.jpg
fa5c50f89.jpg
abb49af84.jpg
dd3ad7c90.jpg
a278b2fb0.jpg
810b07b13.jpg
01cd70a58.jpg
2f7747fc9.jpg
82531d590.jpg
2cd7913bb.jpg
84f1d66d3.jpg
295691261.jpg
b0f5c6c14.jpg
a93ddd801.jpg
c640661f3.jpg
a7dd3f508.jpg
f2759098e.jpg
fc5c296f8.jpg
3353c2487.jpg
dfb446097.jpg
503c59246.jpg
5eb603208.jpg
0ada1400a.jpg
6e230f1c4.jpg
d717b1f1e.jpg
321f922d3.jpg
a0958e4b3.jpg
bacdc3712.jpg
5e9b363b8.jpg
e726adbdf.jpg
c6089e927.jpg
3a16eaf31.jpg
99a607614.jpg
870523991.jpg
90f3201dc.jpg
8b23b0eb6.jpg
fe11bc0bf.jpg
69dc91999.jpg
d357f4dff.jpg
c57aba468.jpg
81ede8b8c.jpg
822918d1e.jpg
3e7b97cbc.jpg
d8e0fda68.jpg
9745209d5.jpg
d7b3b1627.jpg
7decd802f.jpg
bf34a0cb3.jpg
4297d5175.jpg
2c09fd3ec.jpg
63afcbcc0.jpg
7d91bce1c.jpg
c12d18910.jpg
560a4ba05.jpg
aad9049de.jpg
94e414872.jpg
6447f1eeb.jpg
67875b513.jpg
9338e11b1.jpg
c3e47f8a2.jpg
31f16387c.jpg
ed71fbbbc.jpg
ee691759d.jpg
6614d0af1.jpg
12f3ca1b7.jpg
f30f7f31f.jpg
b22373eea.jpg
aa9865563.jpg
11c839069.jpg
d0c8da9ec.jpg
698e8974a.jpg
1325bc22e.jpg
35b31bb5f.jpg
18a35d725.jpg
21b05eb04.jpg
848e90f7a.jpg
253a824db.jpg
055c8ba66.jpg
099fd2fdc.jpg
7c67bbafd.jpg
d594ff137.jpg
e6820bd9d.jpg
2f30ae22c.jpg
483c2d99c.jpg
6b74f2430.jpg
74778a5b5.jpg
049c26660.jpg
b791352d9.jpg
833e53b6c.jpg
a4fa1e81a.jpg
aaaf641c8.jpg
5d59b0f2e.jpg
01dc06663.jpg
f717d0d27.jpg
8ebdece1e.jpg
ed309eb49.jpg
124254cb7.jpg
0b7cbf3f8.jpg
76c943d32.jpg
a4a84d72d.jpg
69d75b8a6.jpg
4e7de08ff.jpg
814086f62.jpg
378920b57.jpg
82d065e82.jpg
11293cbab.jpg
21eeba83a.jpg
305015649.jpg
0a898c494.jpg
98f03ed73.jpg
2c057842d.jpg
3a049f7ea.jpg
927322b60.jpg
8a02857e5.jpg
5b64d5f31.jpg
3641717ad.jpg
9bc9349f1.jpg
8915b0395.jpg
0a92827f0.jpg
01768ab81.jpg
8f70724a0.jpg
34b367544.jpg
5f4b305ed.jpg
bd0b6d1dc.jpg
523653a6b.jpg
8900113e0.jpg
ec9299a46.jpg
0d9ea371d.jpg
efae7b997.jpg
7f46790b8.jpg
b9fbd001c.jpg
4df7e261b.jpg
9e6ea7e26.jpg
8eefcc05c.jpg
1a8c5bec8.jpg
9869e2d23.jpg
69d4541f1.jpg
9eadcb0b2.jpg
82233a173.jpg
255d3a54a.jpg
c0540d491.jpg
34977dd75.jpg
d85a78625.jpg
cec5ade31.jpg
8762e8619.jpg
17dd31ed9.jpg
8190c00d2.jpg
7c5738c4c.jpg
a06b4f2da.jpg
031e19510.jpg
741f82f39.jpg
78fbee619.jpg
fc572775a.jpg
318cc53a8.jpg
3114ef6d5.jpg
40677417d.jpg
64424666b.jpg
975c75df1.jpg
99891d6b1.jpg
6206bb8d7.jpg
34a86ea3d.jpg
17e840adb.jpg
a5c5df80e.jpg
3a1a8f03f.jpg
547f648b8.jpg
64902518a.jpg
706da9a27.jpg
deeb0c736.jpg
77a90b174.jpg
4544c37a0.jpg
8b415573c.jpg
32e5fdaa6.jpg
6bdd276cc.jpg
24310205b.jpg
cd914c706.jpg
a835836cc.jpg
4bc32d8d1.jpg
35c7aaf5f.jpg
b753be7c4.jpg
dec42f3eb.jpg
0af034423.jpg
1c9c3c853.jpg
01e44668c.jpg
2c1f3819c.jpg
2e039f956.jpg
02ec01c0d.jpg
3d5b352e7.jpg
3f6e0df99.jpg
5b7860ae1.jpg
5eb452395.jpg
7e321839d.jpg
23f91b606.jpg
32b44fdd7.jpg
312c12181.jpg
4910a5b26.jpg
60410f111.jpg
a82d6941f.jpg
a86ff31f7.jpg
abf3a38e2.jpg
adbcb800d.jpg
b3de2cbdc.jpg
b370e1339.jpg
bb050a3fa.jpg
bb55e13fa.jpg
bc445bfc6.jpg
bd8f798f1.jpg
c9e5fde19.jpg
c121cc0e4.jpg
c409ef8af.jpg
c930a3c1a.jpg
c7114f25c.jpg
ca2ba8009.jpg
cae48919d.jpg
cb266bbad.jpg
cc7b82954.jpg
cda9b0a49.jpg
cff1c391d.jpg
d2f3bf07f.jpg
d4cb9d6e4.jpg
d4ce8afee.jpg
d7aeff512.jpg
d9a382afe.jpg
d9eb52339.jpg
d26c27a52.jpg
d87f274a8.jpg
d94f02df8.jpg
d58995cc5.jpg
dae16c039.jpg
db7685ca7.jpg
dc0f310c3.jpg
dda99e4db.jpg
de65d4dd6.jpg
e4b2f37ef.jpg
e9577799d.jpg
efbf30b18.jpg
f0cfd99be.jpg
f3f6d08e6.jpg
f4654f157.jpg
f29103ebb.jpg
fde93a87d.jpg
fffcde6fe.jpg
0187bfdff.jpg
0202dfb29.jpg
028e9f24d.jpg
02bdec750.jpg
032dbd3ae.jpg
0334cf98b.jpg
035ce8d51.jpg
0458c300b.jpg
048bbca71.jpg
049c26660.jpg
04db9c5d8.jpg
04e3e0baa.jpg
055c8ba66.jpg
05ae4c2db.jpg
05db04583.jpg
066228078.jpg
06d79681a.jpg
085f89e06.jpg
08eab80de.jpg
09032ecef.jpg
09a61f71f.jpg
09e29da27.jpg
0a6ac6580.jpg
0a9957790.jpg
0acbf516e.jpg
0ada1400a.jpg
0b6e959b8.jpg
0c2379d8a.jpg
0cacd7317.jpg
0d8b25dc8.jpg
0da56669d.jpg
0e04b85d7.jpg
0e102defb.jpg
0f05226ea.jpg
0f82986cc.jpg
0fc76d5d9.jpg
0ffc13ffa.jpg
100f10498.jpg
107b998cc.jpg
10a2a8a72.jpg
11702ec84.jpg
119f88bbb.jpg
11c985217.jpg
11f476f56.jpg
1325bc22e.jpg
13b7baa29.jpg
13e2a9194.jpg
1480f526d.jpg
1487566c6.jpg
14b76940e.jpg
1661cf004.jpg
1697e4e35.jpg
16bd4269e.jpg
17e840adb.jpg
17f3cae5a.jpg
182ac1bf2.jpg
183ae60da.jpg
1891111cf.jpg
18a6a8885.jpg
19917c432.jpg
19b89f9dd.jpg
1ab1a407a.jpg
1b58417be.jpg
1bfc1f6d7.jpg
1c8b5e93a.jpg
1ce0b1d68.jpg
1ce709911.jpg
1cfc8390f.jpg
1dad22ad6.jpg
1e11b5e7e.jpg
1e305701a.jpg
1e6952f12.jpg
1ec04cc20.jpg
1ef6137fb.jpg
1fb1c6957.jpg
208fff889.jpg
20a501e1c.jpg
20cfea5cc.jpg
210d48a5d.jpg
210e9eeaa.jpg
2164d51a7.jpg
216ea1a93.jpg
2177d8941.jpg
219ff10f4.jpg
23700b2e3.jpg
242b46917.jpg
24310205b.jpg
2540b8ce8.jpg
255d3a54a.jpg
259b51f24.jpg
25acbbbda.jpg
2618a13a6.jpg
263bbf0b5.jpg
26ef12d91.jpg
274bae9c1.jpg
27c97341f.jpg
2872f5a1a.jpg
2890196a3.jpg
2989464d4.jpg
298964ea5.jpg
299b5f715.jpg
2a27b0599.jpg
2a720ecaa.jpg
2ab410d32.jpg
2b824f113.jpg
2c057842d.jpg
2cf00b080.jpg
2d3b18d76.jpg
2e039f956.jpg
2e21c23b9.jpg
2e2da7d70.jpg
2e86d063a.jpg
2f03de224.jpg
2f30ae22c.jpg
2f3152628.jpg
2f8efb216.jpg
2fc45c933.jpg
305015649.jpg
306733c15.jpg
306981bb3.jpg
306e29b2d.jpg
3090d3069.jpg
30bd700a3.jpg
31013d046.jpg
310e55dbf.jpg
312f6cc30.jpg
318cc53a8.jpg
3216ee4c5.jpg
32b124213.jpg
33273c9dc.jpg
333550dad.jpg
333dd71a9.jpg
337e7bc00.jpg
33ee87d21.jpg
34e861307.jpg
34fdec579.jpg
353ca37a0.jpg
35b31bb5f.jpg
369de80e0.jpg
36e9f0b6f.jpg
36ee01556.jpg
36f0aff97.jpg
36f354725.jpg
373430ed2.jpg
3851b7761.jpg
3888d9989.jpg
38b6f85e9.jpg
38ef6a554.jpg
39ab6df04.jpg
39f537f54.jpg
3a0062726.jpg
3a3561c5d.jpg
3bde9b531.jpg
3c3713488.jpg
3c5ad708e.jpg
3ca31ebd4.jpg
3ce52eddd.jpg
3e1d492a0.jpg
3e5888dde.jpg
3e670ccda.jpg
3ebf85c48.jpg
3fcbd8b3c.jpg
414c86429.jpg
41b70c859.jpg
4217039a6.jpg
42fdde329.jpg
43af03e60.jpg
4420e17ab.jpg
444b09aca.jpg
449c5649d.jpg
44deaa00a.jpg
450ba6e47.jpg
458b93999.jpg
46721c888.jpg
468326f24.jpg
484518aed.jpg
48d1d09eb.jpg
48e386e7c.jpg
4977df65a.jpg
498baf24c.jpg
49d94b745.jpg
49e1d1aac.jpg
4a5ad8273.jpg
4be97b307.jpg
4c24a19a6.jpg
4cd623821.jpg
4d378a0b2.jpg
4d503bc95.jpg
4d6002e1f.jpg
4e0e41abf.jpg
4e5f99280.jpg
4ea1ac9e9.jpg
4f690cff0.jpg
4f7e6a417.jpg
50c18c0b8.jpg
5151783ee.jpg
51bf30eca.jpg
529b6738c.jpg
5317edfd4.jpg
535ed8a87.jpg
5374d2558.jpg
54b718c76.jpg
5541af70d.jpg
55ab74496.jpg
56c01f0d2.jpg
57c86a899.jpg
57fb576e5.jpg
5831e0bef.jpg
5984c200c.jpg
5a7163609.jpg
5aa73f319.jpg
5b1fc565c.jpg
5b90ee284.jpg
5c556c3b4.jpg
5c6918f2c.jpg
5c75ab9de.jpg
5df8b0e34.jpg
5e7a5f3dc.jpg
5e9b363b8.jpg
5f41af399.jpg
5fe0c6963.jpg
5ff64c3a6.jpg
6089968f6.jpg
61a5c05c4.jpg
62a63b25b.jpg
63492795c.jpg
6365381d2.jpg
63d13fee1.jpg
64ef03f10.jpg
68a446059.jpg
693798550.jpg
698e8974a.jpg
69c93070a.jpg
69dc91999.jpg
6a4ea1d99.jpg
6acfdfbb6.jpg
6b49effe0.jpg
6bdd276cc.jpg
6c2fb0b49.jpg
6d27ab383.jpg
6da6816f1.jpg
6f64dd1df.jpg
6fd7ec43c.jpg
70c60ea38.jpg
70ee4adcb.jpg
72e6ce374.jpg
72fcffa21.jpg
734125e59.jpg
73732cbe8.jpg
74778a5b5.jpg
7519d23dd.jpg
7625168f0.jpg
765787136.jpg
76b5c6df1.jpg
76b99d97e.jpg
77674d4e4.jpg
77c1f61a2.jpg
781b5892c.jpg
786551123.jpg
787ce5c89.jpg
78be3a290.jpg
7901b61e3.jpg
793020462.jpg
79354529c.jpg
7a9b6e500.jpg
7ad675ed0.jpg
7b42ef3ab.jpg
7ba47f007.jpg
7c3f7eded.jpg
7c94005c1.jpg
7d39555d7.jpg
7dcbd7e9b.jpg
7e48fda95.jpg
7e7ea91d6.jpg
7f2347ca5.jpg
7f9be797b.jpg
7fd05d57c.jpg
8066c76cf.jpg
817ed5f3c.jpg
8190c00d2.jpg
81a4b7f5c.jpg
81b6dd466.jpg
81ede8b8c.jpg
82ef170b5.jpg
82f07eb60.jpg
83171df9f.jpg
833e53b6c.jpg
8389e2f4d.jpg
83e49293b.jpg
845acb424.jpg
848c9c1ec.jpg
8493dc51b.jpg
8495866fb.jpg
84a58826e.jpg
84f2e9f9f.jpg
8574a995d.jpg
8669b5572.jpg
870523991.jpg
87511700d.jpg
8763a9311.jpg
89056eba7.jpg
893c0b0cf.jpg
896378efc.jpg
8b5aa5fe5.jpg
8bcb5d691.jpg
8e25d975b.jpg
8e3ad70d8.jpg
8edef7e0d.jpg
8eefcc05c.jpg
8fe391081.jpg
903388119.jpg
909ff3867.jpg
9148d9ef2.jpg
92d5a33c0.jpg
947d98d45.jpg
950771782.jpg
958e7f6c2.jpg
96ff775a5.jpg
9805e3ddd.jpg
980d79f3f.jpg
986e9796b.jpg
98f03ed73.jpg
9a2fa5edb.jpg
9a9976a86.jpg
9aa235ada.jpg
9b09270c2.jpg
9b8a92365.jpg
9bc9349f1.jpg
9c2439644.jpg
9d12e6a0d.jpg
9d64c70eb.jpg
9dfb1d223.jpg
9e51f9547.jpg
9f7594eeb.jpg
a0ce200f2.jpg
a18c6d91a.jpg
a278b2fb0.jpg
a33e5bb54.jpg
a480cde21.jpg
a4cd604be.jpg
a51ab831c.jpg
a5c5df80e.jpg
a6c11755e.jpg
a7067aa1a.jpg
a741dc07c.jpg
a746bbba7.jpg
a8032712f.jpg
a82057b8f.jpg
a86ff31f7.jpg
a93ddd801.jpg
a968ea835.jpg
a9d18c1fc.jpg
aa9865563.jpg
aad9049de.jpg
ab2a4ae14.jpg
ace8add1e.jpg
ae6ace027.jpg
aeadd1952.jpg
aeba6d16e.jpg
af081e9b6.jpg
af1a57ca9.jpg
b0ac88404.jpg
b0d7328b1.jpg
b11214de2.jpg
b11c44221.jpg
b13ee8454.jpg
b1b42aae9.jpg
b2e7f66a2.jpg
b30738e19.jpg
b315f744c.jpg
b3c1e6be3.jpg
b4c21a161.jpg
b4d9644a7.jpg
b56c9cde4.jpg
b5c982ae8.jpg
b5cad5e97.jpg
b629b3a5c.jpg
b660420dc.jpg
b68873204.jpg
b6fe626c6.jpg
b741a16dd.jpg
b7a1523ca.jpg
b851fd7d2.jpg
b919e25b6.jpg
b920bb093.jpg
b9b454ebd.jpg
b9d928f1f.jpg
b9f2e467e.jpg
ba786d02d.jpg
bb050a3fa.jpg
bb55e13fa.jpg
bc445bfc6.jpg
bdbde05e7.jpg
be468863b.jpg
be5d49cd7.jpg
beb086146.jpg
bf312b0c2.jpg
c0a28a337.jpg
c0cdf05b3.jpg
c12d18910.jpg
c1b2e9be5.jpg
c286d1009.jpg
c2cdff10d.jpg
c2db30c26.jpg
c327275eb.jpg
c36acef9d.jpg
c4618039f.jpg
c669a3706.jpg
c73790ed5.jpg
c7552a275.jpg
c7cc81166.jpg
c8d1b3e1a.jpg
c964779b0.jpg
ca80644c6.jpg
cacf78803.jpg
caf7fa7ca.jpg
cb3450880.jpg
cb8414acb.jpg
cc5fdd2d2.jpg
cce87492e.jpg
cd310f07c.jpg
cd914c706.jpg
cda9b0a49.jpg
ce96a5ff2.jpg
cec5ade31.jpg
cf62b5660.jpg
d039f83b8.jpg
d0f9e3be4.jpg
d105fb350.jpg
d28909e74.jpg
d357f4dff.jpg
d4cb9d6e4.jpg
d4fd0c574.jpg
d5fb023dc.jpg
d63818720.jpg
d6493c938.jpg
d6cc6e140.jpg
d79731004.jpg
d803caa6f.jpg
d831d28ee.jpg
d85a78625.jpg
d86d4d0ba.jpg
daa946056.jpg
db087a6a0.jpg
dcdda2959.jpg
dd0b8f4d6.jpg
dd2fccb11.jpg
dd498a04a.jpg
dd7603217.jpg
de9365036.jpg
dfa69a35a.jpg
dfa99adb6.jpg
e12de3dc3.jpg
e14261efa.jpg
e1b7d542d.jpg
e3a7abfad.jpg
e4d120071.jpg
e6820bd9d.jpg
e7a835e76.jpg
e874633c5.jpg
e8a078a35.jpg
e91f67b7b.jpg
e9577799d.jpg
eb59470c7.jpg
eb8b69ec1.jpg
ecf812258.jpg
ed309eb49.jpg
ed71fbbbc.jpg
ee2cc42ab.jpg
ee8268db7.jpg
eee15e60a.jpg
ef50e4467.jpg
ef55e3f13.jpg
f0c00d4d2.jpg
f0f7c155e.jpg
f250102e8.jpg
f2ee8b1df.jpg
f37f02e62.jpg
f46f2186f.jpg
f471f175e.jpg
f691658ec.jpg
f717d0d27.jpg
f8cdb7b1e.jpg
f8f26b8c6.jpg
fa4f28cfc.jpg
fa810fab3.jpg
faa6859de.jpg
fabc19a85.jpg
faea123b0.jpg
faec9335c.jpg
faf949a01.jpg
fb4263c31.jpg
fb6c3bde3.jpg
fbba8bdc3.jpg
fc572775a.jpg
fc8ed9263.jpg
fd1b34ed7.jpg
fd9ca8d6d.jpg
fdace1a64.jpg
fe943748b.jpg
feadeba7c.jpg